<mxfile host="app.diagrams.net" modified="2024-01-02T04:32:18.891Z" agent="Mozilla/5.0 (Windows NT 10.0; Win64; x64) AppleWebKit/537.36 (KHTML, like Gecko) Chrome/119.0.0.0 Safari/537.36" etag="DSVIc1A9v8F5uNHqy1GO" version="22.1.16" type="gitlab">
  <diagram name="Page-1" id="97916047-d0de-89f5-080d-49f4d83e522f">
    <mxGraphModel dx="1420" dy="5736" grid="1" gridSize="10" guides="1" tooltips="1" connect="1" arrows="1" fold="1" page="1" pageScale="1.5" pageWidth="4681" pageHeight="3300" background="none" math="0" shadow="0">
      <root>
        <mxCell id="0" />
        <mxCell id="1" parent="0" />
        <mxCell id="wtb_pBUxUhn7dVV0Sfrh-64" style="edgeStyle=orthogonalEdgeStyle;rounded=0;orthogonalLoop=1;jettySize=auto;html=1;exitDx=0;exitDy=0;entryDx=0;entryDy=0;noEdgeStyle=1;orthogonal=1;" parent="1" source="2" target="wtb_pBUxUhn7dVV0Sfrh-55" edge="1">
          <mxGeometry relative="1" as="geometry">
            <Array as="points">
              <mxPoint x="214" y="782.5" />
              <mxPoint x="288" y="532.5" />
            </Array>
          </mxGeometry>
        </mxCell>
        <mxCell id="wtb_pBUxUhn7dVV0Sfrh-65" style="edgeStyle=orthogonalEdgeStyle;rounded=0;orthogonalLoop=1;jettySize=auto;html=1;exitDx=0;exitDy=0;noEdgeStyle=1;orthogonal=1;" parent="1" source="2" target="wtb_pBUxUhn7dVV0Sfrh-56" edge="1">
          <mxGeometry relative="1" as="geometry">
            <Array as="points">
              <mxPoint x="212" y="774.1666666666666" />
              <mxPoint x="288" y="288.75" />
            </Array>
          </mxGeometry>
        </mxCell>
        <mxCell id="wtb_pBUxUhn7dVV0Sfrh-66" style="edgeStyle=orthogonalEdgeStyle;rounded=0;orthogonalLoop=1;jettySize=auto;html=1;exitDx=0;exitDy=0;entryDx=0;entryDy=0;noEdgeStyle=1;orthogonal=1;" parent="1" source="2" target="3" edge="1">
          <mxGeometry relative="1" as="geometry">
            <Array as="points">
              <mxPoint x="216" y="790.8333333333334" />
              <mxPoint x="288" y="750" />
            </Array>
          </mxGeometry>
        </mxCell>
        <mxCell id="wtb_pBUxUhn7dVV0Sfrh-75" style="edgeStyle=orthogonalEdgeStyle;rounded=0;orthogonalLoop=1;jettySize=auto;html=1;exitDx=0;exitDy=0;entryDx=0;entryDy=0;noEdgeStyle=1;orthogonal=1;" parent="1" source="2" target="wtb_pBUxUhn7dVV0Sfrh-60" edge="1">
          <mxGeometry relative="1" as="geometry">
            <Array as="points">
              <mxPoint x="216" y="799.1666666666667" />
              <mxPoint x="288" y="840" />
            </Array>
          </mxGeometry>
        </mxCell>
        <mxCell id="wtb_pBUxUhn7dVV0Sfrh-76" style="edgeStyle=orthogonalEdgeStyle;rounded=0;orthogonalLoop=1;jettySize=auto;html=1;exitDx=0;exitDy=0;entryDx=0;entryDy=0;noEdgeStyle=1;orthogonal=1;" parent="1" source="2" target="wtb_pBUxUhn7dVV0Sfrh-59" edge="1">
          <mxGeometry relative="1" as="geometry">
            <Array as="points">
              <mxPoint x="214" y="807.5000000000001" />
              <mxPoint x="288" y="930" />
            </Array>
          </mxGeometry>
        </mxCell>
        <mxCell id="wtb_pBUxUhn7dVV0Sfrh-77" style="edgeStyle=orthogonalEdgeStyle;rounded=0;orthogonalLoop=1;jettySize=auto;html=1;exitDx=0;exitDy=0;noEdgeStyle=1;orthogonal=1;" parent="1" source="2" target="wtb_pBUxUhn7dVV0Sfrh-57" edge="1">
          <mxGeometry relative="1" as="geometry">
            <Array as="points">
              <mxPoint x="212" y="815.8333333333335" />
              <mxPoint x="288" y="1275" />
            </Array>
          </mxGeometry>
        </mxCell>
        <mxCell id="2" value="省行" style="rounded=1;fillColor=#10739E;strokeColor=none;shadow=1;gradientColor=none;fontStyle=1;fontColor=#FFFFFF;fontSize=14;" parent="1" vertex="1">
          <mxGeometry y="765" width="200" height="60" as="geometry" />
        </mxCell>
        <mxCell id="wtb_pBUxUhn7dVV0Sfrh-67" style="edgeStyle=orthogonalEdgeStyle;rounded=0;orthogonalLoop=1;jettySize=auto;html=1;exitDx=0;exitDy=0;entryDx=0;entryDy=0;noEdgeStyle=1;orthogonal=1;" parent="1" source="3" target="5" edge="1">
          <mxGeometry relative="1" as="geometry">
            <Array as="points">
              <mxPoint x="532" y="733.3333333333334" />
              <mxPoint x="608" y="750" />
            </Array>
          </mxGeometry>
        </mxCell>
        <mxCell id="wtb_pBUxUhn7dVV0Sfrh-68" style="edgeStyle=orthogonalEdgeStyle;rounded=0;orthogonalLoop=1;jettySize=auto;html=1;exitDx=0;exitDy=0;noEdgeStyle=1;orthogonal=1;" parent="1" source="3" target="8" edge="1">
          <mxGeometry relative="1" as="geometry">
            <Array as="points">
              <mxPoint x="534" y="750" />
              <mxPoint x="608" y="840" />
            </Array>
          </mxGeometry>
        </mxCell>
        <mxCell id="wtb_pBUxUhn7dVV0Sfrh-69" style="edgeStyle=orthogonalEdgeStyle;rounded=0;orthogonalLoop=1;jettySize=auto;html=1;exitDx=0;exitDy=0;noEdgeStyle=1;orthogonal=1;" parent="1" source="3" target="4" edge="1">
          <mxGeometry relative="1" as="geometry">
            <Array as="points">
              <mxPoint x="532" y="766.6666666666666" />
              <mxPoint x="608" y="930" />
            </Array>
          </mxGeometry>
        </mxCell>
        <mxCell id="3" value="咸阳分行" style="rounded=1;fillColor=#10739E;strokeColor=none;shadow=1;gradientColor=none;fontStyle=1;fontColor=#FFFFFF;fontSize=14;" parent="1" vertex="1">
          <mxGeometry x="300" y="574" width="220" height="60" as="geometry" />
        </mxCell>
        <mxCell id="4" value="xx支行" style="rounded=1;fillColor=#10739E;strokeColor=none;shadow=1;gradientColor=none;fontStyle=1;fontColor=#FFFFFF;fontSize=14;" parent="1" vertex="1">
          <mxGeometry x="590" y="876" width="200" height="60" as="geometry" />
        </mxCell>
        <mxCell id="5" value="xx支行" style="rounded=1;fillColor=#10739E;strokeColor=none;shadow=1;gradientColor=none;fontStyle=1;fontColor=#FFFFFF;fontSize=14;" parent="1" vertex="1">
          <mxGeometry x="590" y="655" width="200" height="60" as="geometry" />
        </mxCell>
        <mxCell id="6" value="小寨支行" style="rounded=1;fillColor=#10739E;strokeColor=none;shadow=1;gradientColor=none;fontStyle=1;fontColor=#FFFFFF;fontSize=14;" parent="1" vertex="1">
          <mxGeometry x="590" y="102" width="200" height="60" as="geometry" />
        </mxCell>
        <mxCell id="8" value="xx支行" style="rounded=1;fillColor=#10739E;strokeColor=none;shadow=1;gradientColor=none;fontStyle=1;fontColor=#FFFFFF;fontSize=14;" parent="1" vertex="1">
          <mxGeometry x="590" y="765" width="200" height="60" as="geometry" />
        </mxCell>
        <mxCell id="13" value="长安支行" style="rounded=1;fillColor=#10739E;strokeColor=none;shadow=1;gradientColor=none;fontStyle=1;fontColor=#FFFFFF;fontSize=14;" parent="1" vertex="1">
          <mxGeometry x="590" y="323" width="200" height="60" as="geometry" />
        </mxCell>
        <mxCell id="14" value="操作中心" style="rounded=1;fillColor=#10739E;strokeColor=none;shadow=1;gradientColor=none;fontStyle=1;fontColor=#FFFFFF;fontSize=14;" parent="1" vertex="1">
          <mxGeometry x="590" y="544" width="200" height="60" as="geometry" />
        </mxCell>
        <mxCell id="wtb_pBUxUhn7dVV0Sfrh-70" style="edgeStyle=orthogonalEdgeStyle;rounded=0;orthogonalLoop=1;jettySize=auto;html=1;exitDx=0;exitDy=0;entryDx=0;entryDy=0;noEdgeStyle=1;orthogonal=1;" parent="1" source="wtb_pBUxUhn7dVV0Sfrh-55" target="6" edge="1">
          <mxGeometry relative="1" as="geometry">
            <Array as="points">
              <mxPoint x="532" y="512.5" />
              <mxPoint x="608" y="300" />
            </Array>
          </mxGeometry>
        </mxCell>
        <mxCell id="wtb_pBUxUhn7dVV0Sfrh-71" style="edgeStyle=orthogonalEdgeStyle;rounded=0;orthogonalLoop=1;jettySize=auto;html=1;exitDx=0;exitDy=0;noEdgeStyle=1;orthogonal=1;" parent="1" source="wtb_pBUxUhn7dVV0Sfrh-55" target="wtb_pBUxUhn7dVV0Sfrh-61" edge="1">
          <mxGeometry relative="1" as="geometry">
            <Array as="points">
              <mxPoint x="534" y="522.5" />
              <mxPoint x="608" y="390" />
            </Array>
          </mxGeometry>
        </mxCell>
        <mxCell id="wtb_pBUxUhn7dVV0Sfrh-72" style="edgeStyle=orthogonalEdgeStyle;rounded=0;orthogonalLoop=1;jettySize=auto;html=1;exitDx=0;exitDy=0;noEdgeStyle=1;orthogonal=1;" parent="1" source="wtb_pBUxUhn7dVV0Sfrh-55" target="13" edge="1">
          <mxGeometry relative="1" as="geometry">
            <Array as="points">
              <mxPoint x="536" y="532.5" />
              <mxPoint x="608" y="480" />
            </Array>
          </mxGeometry>
        </mxCell>
        <mxCell id="wtb_pBUxUhn7dVV0Sfrh-73" style="edgeStyle=orthogonalEdgeStyle;rounded=0;orthogonalLoop=1;jettySize=auto;html=1;exitDx=0;exitDy=0;noEdgeStyle=1;orthogonal=1;" parent="1" source="wtb_pBUxUhn7dVV0Sfrh-55" target="wtb_pBUxUhn7dVV0Sfrh-62" edge="1">
          <mxGeometry relative="1" as="geometry">
            <Array as="points">
              <mxPoint x="534" y="542.5" />
              <mxPoint x="608" y="570" />
            </Array>
          </mxGeometry>
        </mxCell>
        <mxCell id="wtb_pBUxUhn7dVV0Sfrh-55" value="西安分行" style="rounded=1;fillColor=#10739E;strokeColor=none;shadow=1;gradientColor=none;fontStyle=1;fontColor=#FFFFFF;fontSize=14;" parent="1" vertex="1">
          <mxGeometry x="300" y="232" width="220" height="60" as="geometry" />
        </mxCell>
        <mxCell id="wtb_pBUxUhn7dVV0Sfrh-90" style="edgeStyle=orthogonalEdgeStyle;rounded=0;orthogonalLoop=1;jettySize=auto;html=1;exitDx=0;exitDy=0;noEdgeStyle=1;orthogonal=1;" parent="1" source="wtb_pBUxUhn7dVV0Sfrh-56" target="wtb_pBUxUhn7dVV0Sfrh-85" edge="1">
          <mxGeometry relative="1" as="geometry">
            <Array as="points">
              <mxPoint x="534" y="288.75" />
              <mxPoint x="608" y="120" />
            </Array>
          </mxGeometry>
        </mxCell>
        <mxCell id="wtb_pBUxUhn7dVV0Sfrh-91" style="edgeStyle=orthogonalEdgeStyle;rounded=0;orthogonalLoop=1;jettySize=auto;html=1;exitDx=0;exitDy=0;noEdgeStyle=1;orthogonal=1;" parent="1" source="wtb_pBUxUhn7dVV0Sfrh-56" target="wtb_pBUxUhn7dVV0Sfrh-86" edge="1">
          <mxGeometry relative="1" as="geometry">
            <Array as="points">
              <mxPoint x="532" y="305.4166666666667" />
              <mxPoint x="608" y="210" />
            </Array>
          </mxGeometry>
        </mxCell>
        <mxCell id="wtb_pBUxUhn7dVV0Sfrh-56" value="渭南分行" style="rounded=1;fillColor=#10739E;strokeColor=none;shadow=1;gradientColor=none;fontStyle=1;fontColor=#FFFFFF;fontSize=14;" parent="1" vertex="1">
          <mxGeometry x="300" y="-110" width="220" height="60" as="geometry" />
        </mxCell>
        <mxCell id="wtb_pBUxUhn7dVV0Sfrh-92" style="edgeStyle=orthogonalEdgeStyle;rounded=0;orthogonalLoop=1;jettySize=auto;html=1;exitDx=0;exitDy=0;noEdgeStyle=1;orthogonal=1;" parent="1" source="wtb_pBUxUhn7dVV0Sfrh-57" target="wtb_pBUxUhn7dVV0Sfrh-87" edge="1">
          <mxGeometry relative="1" as="geometry" />
        </mxCell>
        <mxCell id="wtb_pBUxUhn7dVV0Sfrh-93" style="edgeStyle=orthogonalEdgeStyle;rounded=0;orthogonalLoop=1;jettySize=auto;html=1;exitDx=0;exitDy=0;noEdgeStyle=1;orthogonal=1;" parent="1" source="wtb_pBUxUhn7dVV0Sfrh-57" target="wtb_pBUxUhn7dVV0Sfrh-88" edge="1">
          <mxGeometry relative="1" as="geometry" />
        </mxCell>
        <mxCell id="wtb_pBUxUhn7dVV0Sfrh-57" value="汉中分行" style="rounded=1;fillColor=#10739E;strokeColor=none;shadow=1;gradientColor=none;fontStyle=1;fontColor=#FFFFFF;fontSize=14;" parent="1" vertex="1">
          <mxGeometry x="330" y="1600" width="220" height="60" as="geometry" />
        </mxCell>
        <mxCell id="wtb_pBUxUhn7dVV0Sfrh-94" style="edgeStyle=orthogonalEdgeStyle;rounded=0;orthogonalLoop=1;jettySize=auto;html=1;exitDx=0;exitDy=0;noEdgeStyle=1;orthogonal=1;" parent="1" source="wtb_pBUxUhn7dVV0Sfrh-59" target="wtb_pBUxUhn7dVV0Sfrh-79" edge="1">
          <mxGeometry relative="1" as="geometry" />
        </mxCell>
        <mxCell id="wtb_pBUxUhn7dVV0Sfrh-95" style="edgeStyle=orthogonalEdgeStyle;rounded=0;orthogonalLoop=1;jettySize=auto;html=1;exitDx=0;exitDy=0;noEdgeStyle=1;orthogonal=1;" parent="1" source="wtb_pBUxUhn7dVV0Sfrh-59" target="wtb_pBUxUhn7dVV0Sfrh-80" edge="1">
          <mxGeometry relative="1" as="geometry" />
        </mxCell>
        <mxCell id="wtb_pBUxUhn7dVV0Sfrh-96" style="edgeStyle=orthogonalEdgeStyle;rounded=0;orthogonalLoop=1;jettySize=auto;html=1;exitDx=0;exitDy=0;entryDx=0;entryDy=0;noEdgeStyle=1;orthogonal=1;" parent="1" source="wtb_pBUxUhn7dVV0Sfrh-59" target="wtb_pBUxUhn7dVV0Sfrh-81" edge="1">
          <mxGeometry relative="1" as="geometry" />
        </mxCell>
        <mxCell id="wtb_pBUxUhn7dVV0Sfrh-59" value="铜川分行" style="rounded=1;fillColor=#10739E;strokeColor=none;shadow=1;gradientColor=none;fontStyle=1;fontColor=#FFFFFF;fontSize=14;" parent="1" vertex="1">
          <mxGeometry x="320" y="1258" width="220" height="60" as="geometry" />
        </mxCell>
        <mxCell id="wtb_pBUxUhn7dVV0Sfrh-97" style="edgeStyle=orthogonalEdgeStyle;rounded=0;orthogonalLoop=1;jettySize=auto;html=1;exitDx=0;exitDy=0;noEdgeStyle=1;orthogonal=1;" parent="1" source="wtb_pBUxUhn7dVV0Sfrh-60" target="wtb_pBUxUhn7dVV0Sfrh-82" edge="1">
          <mxGeometry relative="1" as="geometry">
            <Array as="points">
              <mxPoint x="532" y="827.5" />
              <mxPoint x="608" y="1020" />
            </Array>
          </mxGeometry>
        </mxCell>
        <mxCell id="wtb_pBUxUhn7dVV0Sfrh-60" value="xx分行" style="rounded=1;fillColor=#10739E;strokeColor=none;shadow=1;gradientColor=none;fontStyle=1;fontColor=#FFFFFF;fontSize=14;" parent="1" vertex="1">
          <mxGeometry x="290" y="765" width="220" height="60" as="geometry" />
        </mxCell>
        <mxCell id="wtb_pBUxUhn7dVV0Sfrh-61" value="高新支行" style="rounded=1;fillColor=#10739E;strokeColor=none;shadow=1;gradientColor=none;fontStyle=1;fontColor=#FFFFFF;fontSize=14;" parent="1" vertex="1">
          <mxGeometry x="590" y="212" width="200" height="60" as="geometry" />
        </mxCell>
        <mxCell id="wtb_pBUxUhn7dVV0Sfrh-62" value="档案仓库" style="rounded=1;fillColor=#10739E;strokeColor=none;shadow=1;gradientColor=none;fontStyle=1;fontColor=#FFFFFF;fontSize=14;" parent="1" vertex="1">
          <mxGeometry x="590" y="434" width="200" height="60" as="geometry" />
        </mxCell>
        <mxCell id="wtb_pBUxUhn7dVV0Sfrh-74" style="edgeStyle=orthogonalEdgeStyle;rounded=0;orthogonalLoop=1;jettySize=auto;html=1;exitDx=0;exitDy=0;entryDx=0;entryDy=0;entryPerimeter=0;noEdgeStyle=1;orthogonal=1;" parent="1" source="wtb_pBUxUhn7dVV0Sfrh-55" target="14" edge="1">
          <mxGeometry relative="1" as="geometry">
            <Array as="points">
              <mxPoint x="532" y="552.5" />
              <mxPoint x="608" y="660" />
            </Array>
          </mxGeometry>
        </mxCell>
        <mxCell id="wtb_pBUxUhn7dVV0Sfrh-79" value="xx支行" style="rounded=1;fillColor=#10739E;strokeColor=none;shadow=1;gradientColor=none;fontStyle=1;fontColor=#FFFFFF;fontSize=14;" parent="1" vertex="1">
          <mxGeometry x="590" y="1208" width="200" height="60" as="geometry" />
        </mxCell>
        <mxCell id="wtb_pBUxUhn7dVV0Sfrh-80" value="xx支行" style="rounded=1;fillColor=#10739E;strokeColor=none;shadow=1;gradientColor=none;fontStyle=1;fontColor=#FFFFFF;fontSize=14;" parent="1" vertex="1">
          <mxGeometry x="590" y="1318" width="200" height="60" as="geometry" />
        </mxCell>
        <mxCell id="wtb_pBUxUhn7dVV0Sfrh-81" value="xx支行" style="rounded=1;fillColor=#10739E;strokeColor=none;shadow=1;gradientColor=none;fontStyle=1;fontColor=#FFFFFF;fontSize=14;" parent="1" vertex="1">
          <mxGeometry x="590" y="1429" width="200" height="60" as="geometry" />
        </mxCell>
        <mxCell id="wtb_pBUxUhn7dVV0Sfrh-82" value="xx支行" style="rounded=1;fillColor=#10739E;strokeColor=none;shadow=1;gradientColor=none;fontStyle=1;fontColor=#FFFFFF;fontSize=14;" parent="1" vertex="1">
          <mxGeometry x="590" y="986" width="200" height="60" as="geometry" />
        </mxCell>
        <mxCell id="wtb_pBUxUhn7dVV0Sfrh-83" value="xx支行" style="rounded=1;fillColor=#10739E;strokeColor=none;shadow=1;gradientColor=none;fontStyle=1;fontColor=#FFFFFF;fontSize=14;" parent="1" vertex="1">
          <mxGeometry x="590" y="1097" width="200" height="60" as="geometry" />
        </mxCell>
        <mxCell id="wtb_pBUxUhn7dVV0Sfrh-84" value="xx支行" style="rounded=1;fillColor=#10739E;strokeColor=none;shadow=1;gradientColor=none;fontStyle=1;fontColor=#FFFFFF;fontSize=14;" parent="1" vertex="1">
          <mxGeometry x="590" y="-230" width="200" height="60" as="geometry" />
        </mxCell>
        <mxCell id="wtb_pBUxUhn7dVV0Sfrh-85" value="xx支行" style="rounded=1;fillColor=#10739E;strokeColor=none;shadow=1;gradientColor=none;fontStyle=1;fontColor=#FFFFFF;fontSize=14;" parent="1" vertex="1">
          <mxGeometry x="590" y="-119" width="200" height="60" as="geometry" />
        </mxCell>
        <mxCell id="wtb_pBUxUhn7dVV0Sfrh-86" value="xx支行" style="rounded=1;fillColor=#10739E;strokeColor=none;shadow=1;gradientColor=none;fontStyle=1;fontColor=#FFFFFF;fontSize=14;" parent="1" vertex="1">
          <mxGeometry x="590" y="-9" width="200" height="60" as="geometry" />
        </mxCell>
        <mxCell id="wtb_pBUxUhn7dVV0Sfrh-87" value="xx支行" style="rounded=1;fillColor=#10739E;strokeColor=none;shadow=1;gradientColor=none;fontStyle=1;fontColor=#FFFFFF;fontSize=14;" parent="1" vertex="1">
          <mxGeometry x="590" y="1539" width="200" height="60" as="geometry" />
        </mxCell>
        <mxCell id="wtb_pBUxUhn7dVV0Sfrh-88" value="xx支行" style="rounded=1;fillColor=#10739E;strokeColor=none;shadow=1;gradientColor=none;fontStyle=1;fontColor=#FFFFFF;fontSize=14;" parent="1" vertex="1">
          <mxGeometry x="590" y="1650" width="200" height="60" as="geometry" />
        </mxCell>
        <mxCell id="wtb_pBUxUhn7dVV0Sfrh-89" style="edgeStyle=orthogonalEdgeStyle;rounded=0;orthogonalLoop=1;jettySize=auto;html=1;exitDx=0;exitDy=0;entryDx=0;entryDy=0;entryPerimeter=0;noEdgeStyle=1;orthogonal=1;" parent="1" source="wtb_pBUxUhn7dVV0Sfrh-56" target="wtb_pBUxUhn7dVV0Sfrh-84" edge="1">
          <mxGeometry relative="1" as="geometry">
            <Array as="points">
              <mxPoint x="532" y="272.0833333333333" />
              <mxPoint x="608" y="30" />
            </Array>
          </mxGeometry>
        </mxCell>
        <mxCell id="wtb_pBUxUhn7dVV0Sfrh-98" style="edgeStyle=orthogonalEdgeStyle;rounded=0;orthogonalLoop=1;jettySize=auto;html=1;exitDx=0;exitDy=0;entryDx=0;entryDy=0;entryPerimeter=0;noEdgeStyle=1;orthogonal=1;" parent="1" source="wtb_pBUxUhn7dVV0Sfrh-60" target="wtb_pBUxUhn7dVV0Sfrh-83" edge="1">
          <mxGeometry relative="1" as="geometry">
            <Array as="points">
              <mxPoint x="532" y="852.5" />
              <mxPoint x="608" y="1110" />
            </Array>
          </mxGeometry>
        </mxCell>
      </root>
    </mxGraphModel>
  </diagram>
</mxfile>
